\relax 
\providecommand\hyper@newdestlabel[2]{}
\catcode `"\active 
\providecommand\HyperFirstAtBeginDocument{\AtBeginDocument}
\HyperFirstAtBeginDocument{\ifx\hyper@anchor\@undefined
\global\let\oldcontentsline\contentsline
\gdef\contentsline#1#2#3#4{\oldcontentsline{#1}{#2}{#3}}
\global\let\oldnewlabel\newlabel
\gdef\newlabel#1#2{\newlabelxx{#1}#2}
\gdef\newlabelxx#1#2#3#4#5#6{\oldnewlabel{#1}{{#2}{#3}}}
\AtEndDocument{\ifx\hyper@anchor\@undefined
\let\contentsline\oldcontentsline
\let\newlabel\oldnewlabel
\fi}
\fi}
\global\let\hyper@last\relax 
\gdef\HyperFirstAtBeginDocument#1{#1}
\providecommand\HyField@AuxAddToFields[1]{}
\providecommand\HyField@AuxAddToCoFields[2]{}
\select@language{ngerman}
\@writefile{toc}{\select@language{ngerman}}
\@writefile{lof}{\select@language{ngerman}}
\@writefile{lot}{\select@language{ngerman}}
\@writefile{toc}{\contentsline {section}{\numberline {1}Merkzettel Lineare Algebra und analytische Geometrie}{1}{section.1}}
\newlabel{linAlg:winkSklar}{{7}{2}{Merkzettel Lineare Algebra und analytische Geometrie}{equation.1.7}{}}
\newlabel{linAlg:EbenenParam}{{10}{3}{Parametergleichung der Ebene}{equation.1.10}{}}
\newlabel{linAlg:EbenenNorm}{{11}{3}{Normalengleichung und Koordintangleichung der Ebene}{equation.1.11}{}}
\newlabel{linAlg:EbenenKoor}{{12}{3}{Merkzettel Lineare Algebra und analytische Geometrie}{equation.1.12}{}}
